adder-2/waveform.vcd
$version Generated by VerilatedVcd $end
$date Fri Aug  8 22:59:22 2025
 $end
$timescale   1ps $end

 $scope module TOP $end
  $var wire  1 # clk $end
  $var wire  4 % f [3:0] $end
  $var wire  1 & overflow $end
  $var wire  1 $ rst $end
  $scope module $unit $end
   $var wire 32 ' DIGITS [31:0] $end
  $upscope $end
  $scope module top $end
   $var wire  1 # clk $end
   $var wire  4 % f [3:0] $end
   $var wire  1 & overflow $end
   $var wire  1 $ rst $end
   $scope module my_counter $end
    $var wire 32 ' DIGITS [31:0] $end
    $var wire  1 # clk $end
    $var wire  4 % f [3:0] $end
    $var wire  1 & overflow $end
    $var wire  1 $ rst $end
   $upscope $end
  $upscope $end
 $upscope $end
$enddefinitions $end


#0
1#
1$
b0000 %
1&
b00000000000000000000000000000011 '
#1
0#
#2
1#
b0001 %
0&
#3
0#
#4
1#
b0010 %
#5
0#
#6
1#
b0011 %
#7
0#
#8
1#
b0100 %
#9
0#
#10
1#
b0101 %
#11
0#
#12
1#
b0110 %
#13
0#
#14
1#
b0111 %
#15
0#
#16
1#
1&
